{
  "extensionName": {
    "message": "AttachmentExtractor Continued"
  },
  "extensionDescription": {
    "message": "Extracts all attachments from selected messages and then can delete, detach and more"
  },

  "attachmentextractor.toolbarbutton.label": {
    "message": "Uložit přílohy"
  },
  "attachmentextractor.toolbarbutton.tooltip2": {
    "message": "Uložit přílohy z vybraných zpráv"
  },
  "attachmentextractor.headerbutton.label": {
    "message": "Uložit přílohy"
  },
  "attachmentextractor.headerbutton.tooltip": {
    "message": "Uložit přílohy z vybraných zpráv"
  },

  "attachmentextractor.browse.label": {
    "message": "Procházet…"
  },
  "attachmentextractor.browse.accesskey": {
    "message": "P"
  },

  "attachmentextractor.extractSingleAttTo.label": {
    "message": "AE Extract"
  },
  "attachmentextractor.extractMultipleAttTo.label": {
    "message": "AE Extract all"
  },
  "attachmentextractor.extractMessagesTo.label": {
    "message": "AE Extract from Messages"
  },
  "attachmentextractor.extractFoldersTo.label": {
    "message": "AE Extract from Messages in Folder"
  },
  "attachmentextractor.extractTo.label": {
    "message": "AE Extract Attachments"
  },
  "attachmentextractor.extractTo.accesskey": {
    "message": "x"
  },

  "attachmentextractor.extractToBrowse.label": {
    "message": "Browse…"
  },
  "attachmentextractor.extractToBrowse.accesskey": {
    "message": "B"
  },
  "attachmentextractor.extractWithSubToBrowse.label": {
    "message": "Browse… (inc. Subfolders)"
  },
  "attachmentextractor.extractWithSubToBrowse.accesskey": {
    "message": "r"
  },
  "attachmentextractor.extractToDefault.label": {
    "message": "Default Folder"
  },
  "attachmentextractor.extractToDefault.accesskey": {
    "message": "D"
  },
  "attachmentextractor.extractWithSubToDefault.label": {
    "message": "Default Folder (inc. Subfolders)"
  },
  "attachmentextractor.extractWithSubToDefault.accesskey": {
    "message": "e"
  },
  "attachmentextractor.extractToFavoritefolders.label": {
    "message": "Favorite Folders"
  },
  "attachmentextractor.extractToFavoritefolders.accesskey": {
    "message": "F"
  },
  "attachmentextractor.extractWithSubToFavoritefolders.label": {
    "message": "Favorite Folders (inc. Subfolders)"
  },
  "attachmentextractor.extractWithSubToFavoritefolders.accesskey": {
    "message": "a"
  },
  "attachmentextractor.extractToMRUfolders.label": {
    "message": "Most Recently Used Folders"
  },
  "attachmentextractor.extractToMRUfolders.accesskey": {
    "message": "M"
  },
  "attachmentextractor.extractWithSubToMRUfolders.label": {
    "message": "Most Recently Used Folders (inc. Subfolders)"
  },
  "attachmentextractor.extractWithSubToMRUfolders.accesskey": {
    "message": "o"
  },
  "attachmentextractor.extractToSuggestfolders.label": {
    "message": "Suggested Folder…"
  },
  "attachmentextractor.extractToSuggestfolders.accesskey": {
    "message": "S"
  },
  "attachmentextractor.extractWithSubToSuggestfolders.label": {
    "message": "Suggested Folder… (inc. Subfolders)"
  },
  "attachmentextractor.extractWithSubToSuggestfolders.accesskey": {
    "message": "u"
  },
  "attachmentextractor.extractWithCustomPattern.label": {
    "message": "With a Custom Filename Pattern"
  },
  "attachmentextractor.extractWithCustomPattern.accesskey": {
    "message": "W"
  },

  "attachmentextractor.justDeleteAttachments.label": {
    "message": "Odstranit přílohy z vybraných zpráv"
  },
  "attachmentextractor.justDeleteAttachments.accesskey": {
    "message": "O"
  },
  "attachmentextractor.justDeleteAllAttachments.label": {
    "message": "Odstranit přílohy ze všech zpráv"
  },
  "attachmentextractor.justDeleteAllAttachments.accesskey": {
    "message": "V"
  },

  "attachmentextractor.filenamepatterndialog.title": {
    "message": "Šablona názvu souboru"
  },
  "attachmentextractor.filenamepatterndialog.input.label": {
    "message": "Upravte šablonu názvu souboru:"
  },
  "attachmentextractor.filenamepatterndialog.checkbox.label": {
    "message": "Nastavit šablonu jako výchozí"
  },
  "attachmentextractor.filenamepatterndialog.checkbox.accesskey": {
    "message": "V"
  },
  "attachmentextractor.filenamepatterndialog.askalways.label": {
    "message": "Ask always for filename pattern"
  },
  "attachmentextractor.filenamepatterndialog.askalways.accesskey": {
    "message": "A"
  },
  "attachmentextractor.filenamepatterndialog.tokenbutton.label": {
    "message": "Přidat příznak"
  },

  "attachmentextractor.suggestedFolderDialog.title": {
    "message": "Doporučené adresáře"
  },
  "attachmentextractor.suggestedFolderDialog.label": {
    "message": "Doporučené adresáře (na zaákládě předmětů vybraných zpráv):"
  },
  "attachmentextractor.suggestedFolderDialog.acceptbutton": {
    "message": "Použít zvolený adresář"
  },

  "attachmentextractor.settings.windowtitle": {
    "message": "Možnosti rozšíření AttachmentExtractor"
  },
  "attachmentextractor.settings.homepage.label": {
    "message": "Domovská stránka rozšíření AttachmentExtractor a popis možností:"
  },
  "attachmentextractor.settings.generaltab.label": {
    "message": "Základní"
  },
  "attachmentextractor.settings.savefolders.caption": {
    "message": "Kam se mají přílohy uložit?"
  },
  "attachmentextractor.settings.overwritepolicy.label": {
    "message": "V případě, že existuje soubor se stejným jménem jako ukládaná příloha"
  },
  "attachmentextractor.settings.overwrite-replace.label": {
    "message": "Vždy nahradi původní soubor"
  },
  "attachmentextractor.settings.overwrite-replace.accesskey": {
    "message": "N"
  },
  "attachmentextractor.settings.overwrite-ignore.label": {
    "message": "Vždy zachovat původní soubor"
  },
  "attachmentextractor.settings.overwrite-ignore.accesskey": {
    "message": "Z"
  },
  "attachmentextractor.settings.overwrite-rename.label": {
    "message": "Uložit přílohu pod novým jménem"
  },
  "attachmentextractor.settings.overwrite-rename.accesskey": {
    "message": "U"
  },
  "attachmentextractor.settings.overwrite-ask.label": {
    "message": "Dotázat se"
  },
  "attachmentextractor.settings.overwrite-ask.accesskey": {
    "message": "D"
  },
  "attachmentextractor.settings.favoritefolder.dialogtitle": {
    "message": "Favorite Folders"
  },
  "attachmentextractor.settings.favoritefolder.description": {
    "message": "The Favorite Folders allow for a given, faster selection."
  },
  "attachmentextractor.settings.favoritefolder.parents.label": {
    "message": "The following folders are displayed as favorites:"
  },
  "attachmentextractor.settings.favoritefolder.addbutton.label": {
    "message": "Add…"
  },
  "attachmentextractor.settings.favoritefolder.clearbutton.label": {
    "message": "Delete"
  },
  "attachmentextractor.settings.suggestfolder.dialogtitle": {
    "message": "Doporučené adresáře"
  },
  "attachmentextractor.settings.suggestfolder.description": {
    "message": "Adresář může být doporučen k uložení příloh na základě klíčových slov obsažených v předmětu zprávy."
  },
  "attachmentextractor.settings.suggestfolder.disregardduplicates.label": {
    "message": "Ignorovat zdvojená klíčová slova při hodnocení váhy doporučeného adresáře?"
  },
  "attachmentextractor.settings.suggestfolder.disregardduplicates.accesskey": {
    "message": "I"
  },
  "attachmentextractor.settings.suggestfolder.parents.label": {
    "message": "Adresáře obsahující potencionální podadresáře:"
  },
  "attachmentextractor.settings.suggestfolder.excludedkeywords.label": {
    "message": "Ignorovat klíčová slova: (oddělená čárkou)"
  },
  "attachmentextractor.settings.suggestfolder.addbutton.label": {
    "message": "Add…"
  },
  "attachmentextractor.settings.suggestfolder.clearbutton.label": {
    "message": "Smazat"
  },
  "attachmentextractor.settings.savepathmru.caption": {
    "message": "Poslední cesty ukládání"
  },
  "attachmentextractor.settings.savepathmru.label": {
    "message": "Pamatovat si poslední cesty ukládání."
  },
  "attachmentextractor.settings.savepathmru.count.label1": {
    "message": "Pamatovat si posledních"
  },
  "attachmentextractor.settings.savepathmru.count.label2": {
    "message": "cest."
  },
  "attachmentextractor.settings.savepathmru.accesskey": {
    "message": "C"
  },
  "attachmentextractor.settings.savepathmru.clearbutton.label": {
    "message": "Vymazat"
  },
  "attachmentextractor.settings.savefolder.label": {
    "message": "Výchozí cesta pro ukládání příloh:"
  },
  "attachmentextractor.settings.savefolder.browsebutton": {
    "message": "Procházet…"
  },
  "attachmentextractor.settings.posttab.label": {
    "message": "Po Uložení"
  },
  "attachmentextractor.settings.afterextractpolicy.label": {
    "message": "Po dokončení ukládání:"
  },
  "attachmentextractor.settings.after-delete.label": {
    "message": "Smazat zprávy"
  },
  "attachmentextractor.settings.after-delete.accesskey": {
    "message": "S"
  },
  "attachmentextractor.settings.after-read.label": {
    "message": "Označit zprávy jako přečtené"
  },
  "attachmentextractor.settings.after-read.accesskey": {
    "message": "P"
  },
  "attachmentextractor.settings.after-detach.label": {
    "message": "Vyčlenit přílohy ze zpráv"
  },
  "attachmentextractor.settings.after-detach.accesskey": {
    "message": "V"
  },
  "attachmentextractor.settings.after-detach.confirm.label": {
    "message": "Delete without confirmation"
  },
  "attachmentextractor.settings.after-detach.confirm.accesskey": {
    "message": "w"
  },
  "attachmentextractor.settings.notifywhendone.label": {
    "message": "Zobrazovat oznámení o dokončení ukládaní"
  },
  "attachmentextractor.settings.notifywhendone.accesskey": {
    "message": "O"
  },
  "attachmentextractor.settings.after-savemessage.label": {
    "message": "Uložit zprávu do souboru TXT. (stejná syntaxe pro ruční i pro automatické ukládání)"
  },
  "attachmentextractor.settings.after-savemessage.accesskey": {
    "message": "T"
  },
  "attachmentextractor.settings.returnreceipts.button.label": {
    "message": "Potvrzení o přečtení…"
  },
  "attachmentextractor.settings.returnreceipts.dialogtitle": {
    "message": "Potvrzení o přečtení"
  },
  "attachmentextractor.settings.returnreceipts.label": {
    "message": "Rozšíření AttachmentExtractor umí odesílat automaticky potvrzení o přečtení, během označování zpráv jako přečtených."
  },
  "attachmentextractor.settings.returnreceipts.enabled.label": {
    "message": "Odeslatpotvrzení o přečtení, pokud je vyžadováno"
  },
  "attachmentextractor.settings.returnreceipts.enabled.accesskey": {
    "message": "O"
  },
  "attachmentextractor.settings.returnreceipts.override.caption": {
    "message": "Odesílaní potvrzení o přečtení:"
  },
  "attachmentextractor.settings.returnreceipts.override.disabled.label": {
    "message": "Použít nastavení aplikace Thunderbird"
  },
  "attachmentextractor.settings.returnreceipts.override.disabled.accesskey": {
    "message": "T"
  },
  "attachmentextractor.settings.returnreceipts.override.enabled.label": {
    "message": "Překrýt nastavení &apos;Dotázat se&apos; a odeslat potvrzení o přečtení s dotazem."
  },
  "attachmentextractor.settings.returnreceipts.override.enabled.accesskey": {
    "message": "P"
  },
  "attachmentextractor.settings.reporttab.label": {
    "message": "Generátor výpisů"
  },
  "attachmentextractor.settings.reportgen.caption": {
    "message": "Generátor HTML výpisů"
  },
  "attachmentextractor.settings.reportgen.label": {
    "message": "Generovat kontrolní výpis při každém použití."
  },
  "attachmentextractor.settings.reportgen.accesskey": {
    "message": "G"
  },
  "attachmentextractor.settings.reportgen.thumbnail.label": {
    "message": "Používat náhledy obrázků pro přílohy."
  },
  "attachmentextractor.settings.reportgen.thumbnail.accesskey": {
    "message": "N"
  },
  "attachmentextractor.settings.reportgen.embedcss.label": {
    "message": "Vložit údaje o stylu přímo do výpisu (nepoužívat externí styl)."
  },
  "attachmentextractor.settings.reportgen.embedcss.accesskey": {
    "message": "S"
  },
  "attachmentextractor.settings.reportgen.cssfile.caption": {
    "message": "CSS styl výpisů"
  },
  "attachmentextractor.settings.reportgen.reportname2.label": {
    "message": "Název souboru (nebo absolutní cesta) výpisu:"
  },
  "attachmentextractor.settings.reportgen.button.label": {
    "message": "Nastavení generátoru výpisů"
  },
  "attachmentextractor.settings.advancedtab.label": {
    "message": "Rozšířené"
  },
  "attachmentextractor.settings.advancedmoretab.label": {
    "message": "Rozšířené"
  },
  "attachmentextractor.settings.extract.caption": {
    "message": "Ukládání přílohy"
  },
  "attachmentextractor.settings.doextract.label": {
    "message": "Extract the Attachments."
  },
  "attachmentextractor.settings.doextract.accesskey": {
    "message": "x"
  },
  "attachmentextractor.settings.noextract.label": {
    "message": "Zakázat ukládání příloh."
  },
  "attachmentextractor.settings.noextract.accesskey": {
    "message": "U"
  },
  "attachmentextractor.settings.extract.minimumsize.caption": {
    "message": "Minimální velikost"
  },
  "attachmentextractor.settings.extract.minsize_1024_bytes_SI-Unit_KiB-start.label": {
    "message": "Ukládat pouze přílohy větší než:"
  },
  "attachmentextractor.settings.extract.minsize_1024_bytes_SI-Unit_KiB-end.label": {
    "message": "KiB"
  },
  "attachmentextractor.settings.queuerequests.caption": {
    "message": "Fronta"
  },
  "attachmentextractor.settings.queuerequests.disabled.label": {
    "message": "Spustit operaci ihned při požadavku"
  },
  "attachmentextractor.settings.queuerequests.disabled.accesskey": {
    "message": "I"
  },
  "attachmentextractor.settings.queuerequests.enabled.label": {
    "message": "Zařadit požadavek do fronty, pokud je již prováděna jiná operace."
  },
  "attachmentextractor.settings.queuerequests.enabled.accesskey": {
    "message": "F"
  },
  "attachmentextractor.settings.setdatetoemail.label": {
    "message": "Nastavit datum a čas změny souboru na datum přijetí zprávy."
  },
  "attachmentextractor.settings.setdatetoemail.accesskey": {
    "message": "N"
  },
  "attachmentextractor.settings.inlinepolicy.label": {
    "message": "Ukládat také vložené obrázky"
  },
  "attachmentextractor.settings.inlinepolicy.accesskey": {
    "message": "O"
  },
  "attachmentextractor.settings.debug.caption": {
    "message": "Ladění"
  },
  "attachmentextractor.settings.debug.label": {
    "message": "Povolit režim ladění. Ladící informace budou vypsány do konzole a do souboru &apos;aec_debug.txt&apos; v adresáři použitého profilu. (projeví se až po restartu aplikace)"
  },
  "attachmentextractor.settings.debug.accesskey": {
    "message": "L"
  },
  "attachmentextractor.settings.showprogressdialog.label": {
    "message": "Zobrazovat průběh ukládání."
  },
  "attachmentextractor.settings.showprogressdialog.accesskey": {
    "message": "P"
  },
  "attachmentextractor.settings.progressdialogtext.label": {
    "message": "Zobrazovat předměty zpráv a názvy příloh během ukládání."
  },
  "attachmentextractor.settings.progressdialogtext.accesskey": {
    "message": "Z"
  },
  "attachmentextractor.settings.includeexcludepolicy2.label": {
    "message": "Filtr názvů souborů:"
  },
  "attachmentextractor.settings.includeexcludepolicy2-false.label": {
    "message": "Ukládat všechny přílohy kromě těch, které ve jménu obsahují:"
  },
  "attachmentextractor.settings.includeexcludepolicy2-false.accesskey": {
    "message": "V"
  },
  "attachmentextractor.settings.includeexcludepolicy2-true.label": {
    "message": "Ukládat pouze přílohy které ve jménu obsahují:"
  },
  "attachmentextractor.settings.includeexcludepolicy2-true.accesskey": {
    "message": "P"
  },
  "attachmentextractor.settings.filenametab.label": {
    "message": "Jména souborů"
  },
  "attachmentextractor.settings.filenamepatterngroup.label": {
    "message": "Šablona jmen souborů:"
  },
  "attachmentextractor.settings.filenamepattern.askalways.label": {
    "message": "Ask always for filename pattern"
  },
  "attachmentextractor.settings.filenamepattern.askalways.accesskey": {
    "message": "A"
  },
  "attachmentextractor.settings.filenamepattern.label": {
    "message": "Šablona pro generování jmen souborů:"
  },
  "attachmentextractor.settings.filenamepatterncount.label": {
    "message": "Šablona pro generování jmen souborů v případě duplicicty (#count#):"
  },
  "attachmentextractor.settings.filenamepatterncleansubjectq.label": {
    "message": "Použít?"
  },
  "attachmentextractor.settings.filenamepatterncleansubjectq.accesskey": {
    "message": "P"
  },
  "attachmentextractor.settings.filenamepattern.explanation.caption": {
    "message": "Založeno na obdržené zprávě s těmito vlastnostmi:"
  },
  "attachmentextractor.settings.filenamepattern.explanation.withsubject": {
    "message": "Předmět zprávy (#subject#):"
  },
  "attachmentextractor.settings.filenamepattern.explanation.withcleansubject": {
    "message": "Předmět zprávy po odstranění předpon (&apos;re&apos; atd.):"
  },
  "attachmentextractor.settings.filenamepattern.explanation.recieveddate": {
    "message": "Datum (#date#):"
  },
  "attachmentextractor.settings.filenamepattern.explanation.recieveddateformatted": {
    "message": "Datum a čas po použití šablony:"
  },
  "attachmentextractor.settings.filenamepattern.explanation.fromauthor2": {
    "message": "Od (#from# &lt;#fromemail#&gt;):"
  },
  "attachmentextractor.settings.filenamepattern.explanation.attachment": {
    "message": "Název přílohy (#namepart##extpart#):"
  },
  "attachmentextractor.settings.filenamepattern.explanation.wouldgenerate": {
    "message": "By mělo generovat nejdříve:"
  },
  "attachmentextractor.settings.filenamepattern.explanation.wouldgeneratethen": {
    "message": "Následováno:"
  },
  "attachmentextractor.settings.filenamepattern.explanation.mailfolder": {
    "message": "Adresář pošty (#folder#):"
  },
  "attachmentextractor.settings.filenamepatterndate.label": {
    "message": "Šablona pro datumy (#date#):"
  },
  "attachmentextractor.settings.filenamepatterndate.homepage.label": {
    "message": "Příklady formátů datumu (#date#):"
  },
  "attachmentextractor.settings.filenamepatterndate.editbutton.label": {
    "message": "Upravit šablonu datumu"
  },
  "attachmentextractor.settings.filenamepatterndate.dialogtitle": {
    "message": "Nastavení šablony #date#"
  },
  "attachmentextractor.settings.autotab.label": {
    "message": "Automatické ukládání"
  },
  "attachmentextractor.settings.autoextract.label": {
    "message": "Automaticky ukládat přílohy při přijetí nové zprávy"
  },
  "attachmentextractor.settings.autoextract.accesskey": {
    "message": "A"
  },
  "attachmentextractor.settings.autoextract.savefolder.label": {
    "message": "Cesta pro automatické ukládání příloh:"
  },
  "attachmentextractor.settings.autoextract.savefolder.browsebutton": {
    "message": "Procházet"
  },
  "attachmentextractor.settings.autoextract.ontriggeronly.label": {
    "message": "Ukládat pouze přílohy ze zpráv s příslušným štítkem"
  },
  "attachmentextractor.settings.autoextract.ontriggeronly.accesskey": {
    "message": "P"
  },
  "attachmentextractor.settings.autoextract.triggertag.label": {
    "message": "Ukládat přílohy ze zpráv se štítkem:"
  },
  "attachmentextractor.settings.autoextract.cleartriggertag.label": {
    "message": "Odstranit štítek ze zpráv?"
  },
  "attachmentextractor.settings.autoextract.cleartriggertag.accesskey": {
    "message": "O"
  },
  "attachmentextractor.settings.autoextract.waitforall.label": {
    "message": "Začít automatické ukládání až po stažení všech zpráv"
  },
  "attachmentextractor.settings.autoextract.waitforall.accesskey": {
    "message": "Z"
  },
  "attachmentextractor.settings.autoextract.onattachmentsonly.label": {
    "message": "Použít automatické ukládání pouze pro zprávy, které pravděpodobně mají přílohy"
  },
  "attachmentextractor.settings.autoextract.onattachmentsonly.accesskey": {
    "message": "P"
  },
  "attachmentextractor.settings.abouttab.label": {
    "message": "O rozšíření"
  },
  "attachmentextractor.settings.requiresrestart.label": {
    "message": "(Vyžaduje restart aplikace Thunderbird)"
  },
  "attachmentextractor.settings.skipidentical.label": {
    "message": "Přeskakovat stejně velké soubory"
  },
  "attachmentextractor.settings.skipidentical.accesskey": {
    "message": "P"
  },
  "attachmentextractor.progress.windowtitle": {
    "message": "Průběh ukládání příloh"
  },
  "attachmentextractor.progress.status1.text": {
    "message": "Ukládám…"
  },
  "attachmentextractor.progress.status2.text": {
    "message": "Prosím čekejte."
  },
  "attachmentextractor.progress.status.message.text": {
    "message": "Zprávy"
  },
  "attachmentextractor.progress.status.attachment.text": {
    "message": "Přílohy"
  },
  "attachmentextractor.progress.status.file.text": {
    "message": "Průběh"
  },
  "DoneExtractingDialogTitle": {
    "message": "Dokončeno"
  },
  "DoneExtractingDialogMessage": {
    "message": "Ukládání příloh bylo dokončeno!"
  },
  "DoneExtractingDialogNotifyAgain": {
    "message": "Vždy zobrazovat tento dialog."
  },
  "OverwriteDialogTitle": {
    "message": "Soubor již existuje!"
  },
  "OverwriteDialogMessage": {
    "message": "Soubor % již existuje! Přejete si:"
  },
  "OverwriteDialogIgnore": {
    "message": "Přeskočit tuto přílohu"
  },
  "OverwriteDialogReplace": {
    "message": "Přepsat původní soubor"
  },
  "OverwriteDialogRename": {
    "message": "Uložit přílohu pod novým jménem"
  },
  "OverwriteDialogDontAskAgain": {
    "message": "Vždy použít tuto volbu"
  },
  "ProgressDialogProgressText": {
    "message": "Zpráva [%1$s] z [%2$s]"
  },
  "ProgressDialogProgressText2": {
    "message": "Příloha [%1$s] z [%2$s]"
  },
  "ProgressDialogProgressOf": {
    "message": "[%1$s] z [%2$s]"
  },
  "ProgressDialogProgressTextFile": {
    "message": "%1$ KiB z %2$ KiB"
  },
  "FileNamePatternDialogTitle": {
    "message": "Šablona"
  },
  "FileNamePatternDialogMessage": {
    "message": "Zadejte šablonu pro názvy souborů ukládaných příloh:"
  },
  "FileNamePatternDialogQuestion": {
    "message": "Používat tuto šablonu jako výchozí"
  },
  "FileNamePatternDialogAskAlways": {
    "message": "Ask always for filename pattern"
  },
  "ConfirmDetachDialogTitle": {
    "message": "Potvrzení vyčlenění"
  },
  "ConfirmDetachDialogMessage": {
    "message": "Zvolili jste vyčlenit přílohy ze zpráv pomocí experrimentální metody. Pokud nyní vyčlenění potvrdíte, všechny přílohy ze zvolených zpráv budou odtraněny, a nebude možné je znovu obnovit. Opravdu si přejete pokračovat?"
  },
  "ConfirmDetachSettingDialogTitle": {
    "message": "Varování!"
  },
  "ConfirmDetachSettingDialogMessage": {
    "message": "Tato metoda ja stále ještě experimentální, a nemusí být plně funkční ve všech případech.\nPokud se vyskytne chyba, může to vést ke ztrátě přílohy, zprávy nebo obou. Pokud se to stane neexistuje žádná jednoduchá metoda jak zprávy obnovit. Nedoporučuje se použití na důležitých zprávách!\nPoužívejte pouze na své riziko."
  },
  "ConfirmAutoDetachSettingDialogMessage": {
    "message": "Zvolení vyčlenění/mazání příloh ze zpráv způsobí že budou ze všech příchozích zpráv, vyhovujících zadaným kritériím, odstraněny přílohy, bez jakéhokoliv dotazu!\nPokud by se během ukládání vyskytla chyba, může to vést ke ztrátě přílohy, obsahu zprávy, nebo obou!\nTuto volbu nepoužívejte, pokud nechcete riskovat ztrátu dat."
  },
  "CSSFileFilterDescription": {
    "message": "Soubory stylů CSS"
  },
  "CSSFilePickerDialogTitle": {
    "message": "Zvolte styl, který chcete použít"
  },
  "ExecutableFilePickerDialogTitle": {
    "message": "Zvolte aplikaci"
  },
  "GenericErrorDialog": {
    "message": "Chyba!"
  },
  "GenericErrorMessage2": {
    "message": "Rozšíření AttachmentExtractor způsobilo chybu programu. Pokud se to stává pravidelně, oznamte to prosím na stránkách https://gitlab.com/ThunderbirdMailDE/attachment-extractor-continued/issues s výpisem chyb z chybové konzole aplikace Thunderbird."
  },
  "StatusTextStarting": {
    "message": "Příprava ukládání příloh"
  },
  "StatusTextEnded": {
    "message": "Ukládání dokončeno"
  },
  "StatusTextAttachment": {
    "message": "Ukládání příloh: Ukládám přílohu [%1$s] z [%2$s]"
  },
  "StatusTextTidying": {
    "message": "Ukládání příloh: Příloha %1$s byla uložena, uzavírám zpracování…"
  },
  "DeleteLinkedFileTitle": {
    "message": "AttachmentExtractor: Odstranit uložený soubor?"
  },
  "DeleteLinkedFileMessage": {
    "message": "Z této zprávy byli uloženy přílohy rozšířením AttachmentExtractor. Přejete si je také odstranit?"
  },
  "FolderPickerDialogTitle": {
    "message": "Zvolte adresář"
  },
  "FolderPickerDialogTitleDefaultSavePath": {
    "message": "Default Save Path not defined - Select folder to use"
  },
  "FolderPickerDialogTitleDefaultAutoextractPath": {
    "message": "Auto-Extract Save Path not defined - Select folder to use"
  },
  "EmptyLineText": {
    "message": "-- prázdný --"
  },
  "FileNamePatternFixTitle": {
    "message": "Doporučená změna"
  },
  "FileNamePatternFixMessage": {
    "message": "Název souboru nebo šablona počtu, kterou jste zadali není platná, a mohla by narušit běh programu.\nZměnit na: %1$s?"
  },

  "ExtractionStarted": {
    "message": "Ukládání začalo [Datum/Čas: %S]"
  },
  "ExtractionEnded": {
    "message": "Ukládání skončilo [Datum/Čas: %S]"
  },
  "ReportTitle": {
    "message": "Výpis průběhu ukládání příloh"
  },
  "Heading": {
    "message": "Výpis průběhu ukládání příloh"
  },
  "Subject": {
    "message": "Zpráva"
  },
  "From": {
    "message": "Odesílatel"
  },
  "To": {
    "message": "Příjemce"
  },
  "DateTime": {
    "message": "Datum/Čas"
  }
}
